<?xml version="1.0" encoding="UTF-8" standalone="no"?>
<!-- Created with Inkscape (http://www.inkscape.org/) -->

<svg
   width="647.01093"
   height="660.86761"
   viewBox="0 0 171.1883 174.85456"
   version="1.1"
   id="svg5"
   inkscape:version="1.1.1 (3bf5ae0d25, 2021-09-20)"
   sodipodi:docname="split-brain.svg"
   xmlns:inkscape="http://www.inkscape.org/namespaces/inkscape"
   xmlns:sodipodi="http://sodipodi.sourceforge.net/DTD/sodipodi-0.dtd"
   xmlns="http://www.w3.org/2000/svg"
   xmlns:svg="http://www.w3.org/2000/svg">
  <sodipodi:namedview
     id="namedview7"
     pagecolor="#ffffff"
     bordercolor="#666666"
     borderopacity="1.0"
     inkscape:pageshadow="2"
     inkscape:pageopacity="0.0"
     inkscape:pagecheckerboard="0"
     inkscape:document-units="px"
     showgrid="false"
     units="px"
     inkscape:zoom="0.78331215"
     inkscape:cx="138.51438"
     inkscape:cy="220.21872"
     inkscape:window-width="1920"
     inkscape:window-height="1026"
     inkscape:window-x="0"
     inkscape:window-y="29"
     inkscape:window-maximized="1"
     inkscape:current-layer="g22033-6"
     fit-margin-top="3"
     fit-margin-left="3"
     fit-margin-right="3"
     fit-margin-bottom="60" />
  <defs
     id="defs2" />
  <g
     inkscape:label="Layer 1"
     inkscape:groupmode="layer"
     id="layer1"
     transform="translate(-130.40236,-15.681238)">
    <g
       id="g9390"
       transform="translate(0,26.835691)">
      <g
         id="g3026"
         transform="translate(6.5755236,-11.112501)">
        <rect
           style="fill:none;stroke:#000000;stroke-width:1.32292;stroke-miterlimit:4;stroke-dasharray:none;stroke-opacity:1"
           id="rect846"
           width="59.233852"
           height="23.589901"
           x="133.14088"
           y="15.074511" />
        <text
           xml:space="preserve"
           style="font-style:normal;font-weight:normal;font-size:10.5833px;line-height:1.25;font-family:sans-serif;fill:#000000;fill-opacity:1;stroke:none;stroke-width:0.264583"
           x="146.61803"
           y="30.573847"
           id="text2258"><tspan
             sodipodi:role="line"
             id="tspan2256"
             style="stroke-width:0.264583"
             x="146.61803"
             y="30.573847">oldest</tspan></text>
      </g>
      <g
         id="g3026-3"
         transform="translate(6.5755236,27.477683)">
        <rect
           style="fill:none;stroke:#000000;stroke-width:1.32292;stroke-miterlimit:4;stroke-dasharray:none;stroke-opacity:1"
           id="rect846-6"
           width="59.233852"
           height="23.589901"
           x="133.14088"
           y="15.074511" />
        <text
           xml:space="preserve"
           style="font-style:normal;font-weight:normal;font-size:10.5833px;line-height:1.25;font-family:sans-serif;fill:#000000;fill-opacity:1;stroke:none;stroke-width:0.264583"
           x="157.11858"
           y="30.703642"
           id="text2258-7"><tspan
             sodipodi:role="line"
             id="tspan2256-5"
             style="stroke-width:0.264583"
             x="157.11858"
             y="30.703642">A1</tspan></text>
      </g>
      <g
         id="g3026-3-3"
         transform="translate(6.5755236,66.067868)">
        <rect
           style="fill:none;stroke:#000000;stroke-width:1.32292;stroke-miterlimit:4;stroke-dasharray:none;stroke-opacity:1"
           id="rect846-6-5"
           width="59.233852"
           height="23.589901"
           x="133.14088"
           y="15.074511" />
        <text
           xml:space="preserve"
           style="font-style:normal;font-weight:normal;font-size:10.5833px;line-height:1.25;font-family:sans-serif;fill:#000000;fill-opacity:1;stroke:none;stroke-width:0.264583"
           x="156.80931"
           y="30.218832"
           id="text2258-7-6"><tspan
             sodipodi:role="line"
             id="tspan2256-5-2"
             style="stroke-width:0.264583"
             x="156.80931"
             y="30.218832">A2</tspan></text>
        <text
           xml:space="preserve"
           style="font-style:normal;font-weight:normal;font-size:10.5833px;line-height:1.25;font-family:sans-serif;fill:#000000;fill-opacity:1;stroke:none;stroke-width:0.264583"
           x="93.917633"
           y="3.9152389"
           id="text5073"><tspan
             sodipodi:role="line"
             id="tspan5071"
             style="stroke-width:0.264583"
             x="93.917633"
             y="3.9152389" /></text>
      </g>
      <g
         id="g3026-3-3-7"
         transform="translate(6.6483209,102.86446)">
        <rect
           style="fill:none;stroke:#000000;stroke-width:1.32292;stroke-miterlimit:4;stroke-dasharray:none;stroke-opacity:1"
           id="rect846-6-5-9"
           width="59.233852"
           height="23.589901"
           x="133.14088"
           y="15.074511" />
        <text
           xml:space="preserve"
           style="font-style:normal;font-weight:normal;font-size:10.5833px;line-height:1.25;font-family:sans-serif;fill:#000000;fill-opacity:1;stroke:none;stroke-width:0.264583"
           x="156.80931"
           y="30.218832"
           id="text2258-7-6-2"><tspan
             sodipodi:role="line"
             id="tspan2256-5-2-02"
             style="stroke-width:0.264583"
             x="156.80931"
             y="30.218832">A3</tspan></text>
        <text
           xml:space="preserve"
           style="font-style:normal;font-weight:normal;font-size:10.5833px;line-height:1.25;font-family:sans-serif;fill:#000000;fill-opacity:1;stroke:none;stroke-width:0.264583"
           x="93.917633"
           y="3.9152389"
           id="text5073-3"><tspan
             sodipodi:role="line"
             id="tspan5071-7"
             style="stroke-width:0.264583"
             x="93.917633"
             y="3.9152389" /></text>
      </g>
      <path
         style="opacity:1;mix-blend-mode:normal;fill:#ffff00;fill-opacity:1;fill-rule:nonzero;stroke:#000000;stroke-width:1.32292;stroke-linecap:butt;stroke-linejoin:miter;stroke-miterlimit:4;stroke-dasharray:none;stroke-opacity:1"
         d="m 167.47511,43.736589 1.66832,-13.499446 -4.07441,0.37724 5.32409,-4.578084 4.52178,4.573782 -3.75791,-0.301609 1.35631,13.451178 z"
         id="path9368"
         sodipodi:nodetypes="cccccccc" />
      <path
         style="mix-blend-mode:normal;fill:#ffff00;fill-opacity:1;fill-rule:nonzero;stroke:#000000;stroke-width:1.32292;stroke-linecap:butt;stroke-linejoin:miter;stroke-miterlimit:4;stroke-dasharray:none;stroke-opacity:1"
         d="m 167.20711,120.12259 1.66832,-13.49945 -4.07441,0.37724 5.32409,-4.57808 4.52178,4.57378 -3.75791,-0.30161 1.35631,13.45118 z"
         id="path9368-5"
         sodipodi:nodetypes="cccccccc" />
      <path
         style="mix-blend-mode:normal;fill:#ffff00;fill-opacity:1;fill-rule:nonzero;stroke:#000000;stroke-width:1.32292;stroke-linecap:butt;stroke-linejoin:miter;stroke-miterlimit:4;stroke-dasharray:none;stroke-opacity:1"
         d="m 168.3198,82.211257 0.88325,-13.573437 -4.0457,0.612708 5.04985,-4.878909 4.77922,4.30407 -3.76907,-0.08334 2.1335,13.34998 z"
         id="path9368-3"
         sodipodi:nodetypes="cccccccc" />
    </g>
    <g
       id="g9372"
       transform="translate(0,26.850011)">
      <g
         id="g3026-36"
         transform="translate(99.160037,-11.126821)">
        <rect
           style="fill:none;stroke:#000000;stroke-width:1.32292;stroke-miterlimit:4;stroke-dasharray:none;stroke-opacity:1"
           id="rect846-7"
           width="59.233852"
           height="23.589901"
           x="133.14088"
           y="15.074511" />
        <text
           xml:space="preserve"
           style="font-style:normal;font-weight:normal;font-size:10.5833px;line-height:1.25;font-family:sans-serif;fill:#000000;fill-opacity:1;stroke:none;stroke-width:0.264583"
           x="146.61803"
           y="30.573847"
           id="text2258-5"><tspan
             sodipodi:role="line"
             id="tspan2256-3"
             style="stroke-width:0.264583"
             x="146.61803"
             y="30.573847">oldest</tspan></text>
      </g>
      <g
         id="g3026-3-5"
         transform="translate(99.160037,27.463363)">
        <rect
           style="fill:none;stroke:#000000;stroke-width:1.32292;stroke-miterlimit:4;stroke-dasharray:none;stroke-opacity:1"
           id="rect846-6-6"
           width="59.233852"
           height="23.589901"
           x="133.14088"
           y="15.074511" />
        <text
           xml:space="preserve"
           style="font-style:normal;font-weight:normal;font-size:10.5833px;line-height:1.25;font-family:sans-serif;fill:#000000;fill-opacity:1;stroke:none;stroke-width:0.264583"
           x="157.11858"
           y="30.703642"
           id="text2258-7-2"><tspan
             sodipodi:role="line"
             id="tspan2256-5-9"
             style="stroke-width:0.264583"
             x="157.11858"
             y="30.703642">B1</tspan></text>
      </g>
      <g
         id="g3026-3-3-1"
         transform="translate(99.160037,66.053548)">
        <rect
           style="fill:none;stroke:#000000;stroke-width:1.32292;stroke-miterlimit:4;stroke-dasharray:none;stroke-opacity:1"
           id="rect846-6-5-2"
           width="59.233852"
           height="23.589901"
           x="133.14088"
           y="15.074511" />
        <text
           xml:space="preserve"
           style="font-style:normal;font-weight:normal;font-size:10.5833px;line-height:1.25;font-family:sans-serif;fill:#000000;fill-opacity:1;stroke:none;stroke-width:0.264583"
           x="156.80931"
           y="30.218832"
           id="text2258-7-6-7"><tspan
             sodipodi:role="line"
             id="tspan2256-5-2-0"
             style="stroke-width:0.264583"
             x="156.80931"
             y="30.218832">B2</tspan></text>
        <text
           xml:space="preserve"
           style="font-style:normal;font-weight:normal;font-size:10.5833px;line-height:1.25;font-family:sans-serif;fill:#000000;fill-opacity:1;stroke:none;stroke-width:0.264583"
           x="93.917633"
           y="3.9152389"
           id="text5073-9"><tspan
             sodipodi:role="line"
             id="tspan5071-3"
             style="stroke-width:0.264583"
             x="93.917633"
             y="3.9152389" /></text>
      </g>
      <path
         style="mix-blend-mode:normal;fill:#ffff00;fill-opacity:1;fill-rule:nonzero;stroke:#000000;stroke-width:1.32292;stroke-linecap:butt;stroke-linejoin:miter;stroke-miterlimit:4;stroke-dasharray:none;stroke-opacity:1"
         d="m 260.05963,43.722269 1.66832,-13.499446 -4.07441,0.37724 5.32409,-4.578084 4.52178,4.573782 -3.75791,-0.301609 1.35631,13.451178 z"
         id="path9368-6"
         sodipodi:nodetypes="cccccccc" />
      <path
         style="mix-blend-mode:normal;fill:#ffff00;fill-opacity:1;fill-rule:nonzero;stroke:#000000;stroke-width:1.32292;stroke-linecap:butt;stroke-linejoin:miter;stroke-miterlimit:4;stroke-dasharray:none;stroke-opacity:1"
         d="m 260.90432,82.196937 0.88325,-13.573437 -4.0457,0.612708 5.04985,-4.878909 4.77922,4.30407 -3.76907,-0.08334 2.1335,13.34998 z"
         id="path9368-3-0"
         sodipodi:nodetypes="cccccccc" />
    </g>
    <g
       id="g22033"
       transform="translate(-0.78535183,0.04514938)">
      <rect
         style="fill:none;stroke:#65939f;stroke-width:1.26818;stroke-miterlimit:4;stroke-dasharray:1.26818, 1.26818;stroke-dashoffset:0;stroke-opacity:1"
         id="rect9414"
         width="75.412712"
         height="113.35892"
         x="225.53546"
         y="23.708054" />
      <text
         xml:space="preserve"
         style="font-style:normal;font-weight:normal;font-size:7.76111px;line-height:1.25;font-family:sans-serif;fill:#65939f;fill-opacity:1;stroke:none;stroke-width:0.264583"
         x="227.27263"
         y="22.098171"
         id="text12972"><tspan
           sodipodi:role="line"
           id="tspan12970"
           style="font-size:7.76111px;fill:#65939f;fill-opacity:1;stroke-width:0.264583"
           x="227.27263"
           y="22.098171">server B</tspan></text>
    </g>
    <g
       id="g22033-6"
       transform="translate(-93.70527,0.03469614)">
      <rect
         style="fill:none;stroke:#65939f;stroke-width:1.45744;stroke-miterlimit:4;stroke-dasharray:1.45744, 1.45744;stroke-dashoffset:0;stroke-opacity:1"
         id="rect9414-2"
         width="75.223457"
         height="150.0947"
         x="225.6301"
         y="23.802683" />
      <text
         xml:space="preserve"
         style="font-style:normal;font-weight:normal;font-size:7.76111px;line-height:1.25;font-family:sans-serif;fill:#65939f;fill-opacity:1;stroke:none;stroke-width:0.264583"
         x="227.27263"
         y="22.098171"
         id="text12972-6"><tspan
           sodipodi:role="line"
           id="tspan12970-1"
           style="font-size:7.76111px;fill:#65939f;fill-opacity:1;stroke-width:0.264583"
           x="227.27263"
           y="22.098171">server A</tspan></text>
    </g>
  </g>
</svg>
